^P2PKaraokeSystem.ui
C:\Users\CYNTHIA\Documents\gitProject\csci3280\Project\P2P Karaoke System\GeneratedFiles\ui_P2PKaraokeSystem.h
^P2PKaraokeSystem.qrc
C:\Users\CYNTHIA\Documents\gitProject\csci3280\Project\P2P Karaoke System\GeneratedFiles\qrc_P2PKaraokeSystem.cpp
